{"id": 1, "gameId": "1", "recommendationNote": "Great game, recommend to anyone who likes open-world survival and lots of water", "rating": "7"}
{"id": 2, "gameId": "3", "recommendationNote": "Good game, recommend to anyone who loves football and fast-paced action", "rating": "6"}
{"id": 3, "gameId": "4", "recommendationNote": "Great game, recommend to anyone who enjoys battle royale themed action and continuous new experiences every week", "rating": "8"}
{"id": 4, "gameId": "5", "recommendationNote": "Good game, recommend to anyone who likes cars and football blended into one", "rating": "5"}
{"id": 5, "gameId": "6", "recommendationNote": "Great game, recommend to anyone who loves fast-paced action and challenging competition", "rating": "8"}
{"id": 6, "gameId": "8", "recommendationNote": "Okay game, recommend to people who enjoy a progressively more difficult game that involoves lots of unique levels to complete", "rating": "4"}
{"id": 7, "gameId": "11", "recommendationNote": "Good game, recommend to people who enjoy a fun and interactive game to play with friends", "rating": "7"}
{"id": 8, "gameId": "12", "recommendationNote": "Okay game, recommend to people who like to enjoy battling against their friends", "rating": "5"}
{"id": 9, "gameId": "13", "recommendationNote": "Good game, recommend to people who enjoy open-world racing games", "rating": "8"}
{"id": 10, "gameId": "15", "recommendationNote": "Good game, recommend to people who enjoy sandbox games this time it's lego themed", "rating": "6"}